{
  "AstroNvim": { "branch": "main", "commit": "b6eaa446a1fa5108c7b65428842f54608a6470a3" },
  "Comment.nvim": { "branch": "master", "commit": "e30b7f2008e52442154b66f7c519bfd2f1e32acb" },
  "LuaSnip": { "branch": "master", "commit": "03c8e67eb7293c404845b3982db895d59c0d1538" },
  "SchemaStore.nvim": { "branch": "main", "commit": "218a9887085b81b3eb0ee8f1e2d20c4a7fd7b1c9" },
  "aerial.nvim": { "branch": "master", "commit": "7e2615991cf110f6688112abcb45cf338248d1f6" },
  "alpha-nvim": { "branch": "main", "commit": "41283fb402713fc8b327e60907f74e46166f4cfd" },
  "astrocommunity": { "branch": "main", "commit": "be08022d7c6c350a26abd758192e5f0d04561fe5" },
  "astrocore": { "branch": "main", "commit": "1a2fb9ddcba53476841a746b2565722619246717" },
  "astrolsp": { "branch": "main", "commit": "e8290b739fa08c181a2149be5d94db0a91a42cd0" },
  "astrotheme": { "branch": "main", "commit": "41b7d8430a55fd771e41bd763af4c3fd1c2fc0b5" },
  "astroui": { "branch": "main", "commit": "0bc327c4a69f2e2b1a45449d5064d8e27e650d66" },
  "better-escape.nvim": { "branch": "master", "commit": "f45b52f8f87792e8659526f23261ffe278a54be5" },
  "catppuccin": { "branch": "main", "commit": "68b92f9a8d122c13433866c85c13210a320a65d3" },
  "cmp-buffer": { "branch": "main", "commit": "3022dbc9166796b644a841a02de8dd1cc1d311fa" },
  "cmp-cmdline": { "branch": "main", "commit": "d250c63aa13ead745e3a40f61fdd3470efde3923" },
  "cmp-dap": { "branch": "master", "commit": "ea92773e84c0ad3288c3bc5e452ac91559669087" },
  "cmp-nvim-lsp": { "branch": "main", "commit": "39e2eda76828d88b773cc27a3f61d2ad782c922d" },
  "cmp-nvim-lua": { "branch": "main", "commit": "f12408bdb54c39c23e67cab726264c10db33ada8" },
  "cmp-path": { "branch": "main", "commit": "91ff86cd9c29299a64f968ebb45846c485725f23" },
  "cmp_luasnip": { "branch": "master", "commit": "05a9ab28b53f71d1aece421ef32fee2cb857a843" },
  "dressing.nvim": { "branch": "master", "commit": "71349f24c6e07b39f33600985843c289ca735308" },
  "eyeliner.nvim": { "branch": "main", "commit": "828da1c18de397f7bf8fd4fff1daa1c4352b28cf" },
  "friendly-snippets": { "branch": "main", "commit": "00ebcaa159e817150bd83bfe2d51fa3b3377d5c4" },
  "gitsigns.nvim": { "branch": "main", "commit": "0b04035bb7b3c83e999b9676e2fb46fd0aa9f910" },
  "guess-indent.nvim": { "branch": "main", "commit": "6cd61f7a600bb756e558627cd2e740302c58e32d" },
  "heirline.nvim": { "branch": "master", "commit": "0d797435e54645a5f98bad7ad6046aac1ef95c1e" },
  "indent-blankline.nvim": { "branch": "master", "commit": "3fe94b8034dd5241cb882bb73847303b58857ecf" },
  "lazy.nvim": { "branch": "main", "commit": "077102c5bfc578693f12377846d427f49bc50076" },
  "lazydev.nvim": { "branch": "main", "commit": "491452cf1ca6f029e90ad0d0368848fac717c6d2" },
  "lspkind.nvim": { "branch": "master", "commit": "cff4ae321a91ee3473a92ea1a8c637e3a9510aec" },
  "lua-utils.nvim": { "branch": "main", "commit": "e565749421f4bbb5d2e85e37c3cef9d56553d8bd" },
  "luvit-meta": { "branch": "main", "commit": "ce76f6f6cdc9201523a5875a4471dcfe0186eb60" },
  "mason-lspconfig.nvim": { "branch": "main", "commit": "62360f061d45177dda8afc1b0fd1327328540301" },
  "mason-null-ls.nvim": { "branch": "main", "commit": "2b8433f76598397fcc97318d410e0c4f7a4bea6a" },
  "mason-nvim-dap.nvim": { "branch": "main", "commit": "8b9363d83b5d779813cdd2819b8308651cec2a09" },
  "mason.nvim": { "branch": "main", "commit": "c43eeb5614a09dc17c03a7fb49de2e05de203924" },
  "mini.bufremove": { "branch": "main", "commit": "e6044aa28e61d4dd9ec86194d6f81743eced0c1c" },
  "neo-tree.nvim": { "branch": "main", "commit": "8c75e8a2949cd6cd35525799200a8d34471ee9eb" },
  "neoconf.nvim": { "branch": "main", "commit": "093a75fa48c65dfe7d413fb2c5b88d3436aeccb1" },
  "neorg": { "branch": "main", "commit": "ace80b05771b65d6633f3c64b8d930b5787f20d0" },
  "none-ls.nvim": { "branch": "main", "commit": "cfa65d86e21eeb60544d5e823f6db43941322a53" },
  "nui.nvim": { "branch": "main", "commit": "a0fd35fcbb4cb479366f1dc5f20145fd718a3733" },
  "nvim-autopairs": { "branch": "master", "commit": "e38c5d837e755ce186ae51d2c48e1b387c4425c6" },
  "nvim-cmp": { "branch": "main", "commit": "ae644feb7b67bf1ce4260c231d1d4300b19c6f30" },
  "nvim-colorizer.lua": { "branch": "master", "commit": "194ec600488f7c7229668d0e80bd197f3a2b84ff" },
  "nvim-dap": { "branch": "master", "commit": "dcc85d12d6e2c18c5fa0f9a304d9f5e767e1401a" },
  "nvim-dap-python": { "branch": "master", "commit": "d777c2b32ed39f61209c09bede28d7491621a631" },
  "nvim-dap-ui": { "branch": "master", "commit": "a5606bc5958db86f8d92803bea7400ee26a8d7e4" },
  "nvim-lspconfig": { "branch": "master", "commit": "e6528f4613c8db2e04be908eb2b5886d63f62a98" },
  "nvim-nio": { "branch": "master", "commit": "a428f309119086dc78dd4b19306d2d67be884eee" },
  "nvim-notify": { "branch": "master", "commit": "d333b6f167900f6d9d42a59005d82919830626bf" },
  "nvim-surround": { "branch": "main", "commit": "ec2dc7671067e0086cdf29c2f5df2dd909d5f71f" },
  "nvim-treesitter": { "branch": "master", "commit": "d7353a6b72008b38aa873ace49aa97bea257941b" },
  "nvim-treesitter-textobjects": { "branch": "master", "commit": "5a5458bc6202d5ae5c04331763a1bce0265a6a3a" },
  "nvim-ts-autotag": { "branch": "main", "commit": "dc5e1687ab76ee02e0f11c5ce137f530b36e98b3" },
  "nvim-ts-context-commentstring": { "branch": "main", "commit": "6b5f95aa4d24f2c629a74f2c935c702b08dbde62" },
  "nvim-ufo": { "branch": "main", "commit": "a5390706f510d39951dd581f6d2a972741b3fa26" },
  "nvim-web-devicons": { "branch": "master", "commit": "3722e3d1fb5fe1896a104eb489e8f8651260b520" },
  "nvim-window-picker": { "branch": "main", "commit": "41cfaa428577c53552200a404ae9b3a0b5719706" },
  "pathlib.nvim": { "branch": "main", "commit": "7a5a6facd29e306bc73a37719fa67c0d2226f852" },
  "plenary.nvim": { "branch": "master", "commit": "a3e3bc82a3f95c5ed0d7201546d5d2c19b20d683" },
  "promise-async": { "branch": "main", "commit": "38a4575da9497326badd3995e768b4ccf0bb153e" },
  "resession.nvim": { "branch": "master", "commit": "cc819b0489938d03e4f3532a583354f0287c015b" },
  "smart-splits.nvim": { "branch": "master", "commit": "1a2b268a7ec7aeef879cdd15973339010ec134f7" },
  "sqls.nvim": { "branch": "main", "commit": "4b1274b5b44c48ce784aac23747192f5d9d26207" },
  "telescope-fzf-native.nvim": { "branch": "main", "commit": "cf48d4dfce44e0b9a2e19a008d6ec6ea6f01a83b" },
  "telescope.nvim": { "branch": "0.1.x", "commit": "a0bbec21143c7bc5f8bb02e0005fa0b982edc026" },
  "todo-comments.nvim": { "branch": "main", "commit": "313b04e5b02d29ab9275c9295ff5e2b73921b0eb" },
  "toggleterm.nvim": { "branch": "main", "commit": "48be57eaba817f038d61bbf64d2c597f578c0827" },
  "trouble.nvim": { "branch": "main", "commit": "6efc446226679fda0547c0fd6a7892fd5f5b15d8" },
  "twilight.nvim": { "branch": "main", "commit": "1584c0b0a979b71fd86b18d302ba84e9aba85b1b" },
  "venv-selector.nvim": { "branch": "regexp", "commit": "a036144f96adc99f2affab238673ded30e368182" },
  "vim-fugitive": { "branch": "master", "commit": "0444df68cd1cdabc7453d6bd84099458327e5513" },
  "vim-illuminate": { "branch": "master", "commit": "5eeb7951fc630682c322e88a9bbdae5c224ff0aa" },
  "vim-repeat": { "branch": "master", "commit": "65846025c15494983dafe5e3b46c8f88ab2e9635" },
  "vim-sleuth": { "branch": "master", "commit": "1cc4557420f215d02c4d2645a748a816c220e99b" },
  "vim-unimpaired": { "branch": "master", "commit": "6d44a6dc2ec34607c41ec78acf81657248580bf1" },
  "which-key.nvim": { "branch": "main", "commit": "6c1584eb76b55629702716995cca4ae2798a9cca" },
  "zen-mode.nvim": { "branch": "main", "commit": "29b292bdc58b76a6c8f294c961a8bf92c5a6ebd6" }
}
